BRFSS2013 EDA for an Initial Overview
…
Ratio of Poor is higher among the southern states. Demographical variables, i.e.education, income, ethnicity, may suggests associations.

Research quesion 2: Among Poor health, what are the physical or mental aspects?

For Physical and Mental aspects, lets make summary dataframe foe ease of viewing, for how many days of the past 30 days there were:

sub_brfss2013 %>%
  select(X_state, physhlth) %>%
  filter((physhlth > 0) & (X_state != 0) & (physhlth <= 30)) %>%
  group_by(X_state) %>%
  summarise(mean = mean(physhlth), median = median(physhlth), sd = sd(physhlth), n = n())

## # A tibble: 53 x 5
##    X_state               mean median    sd     n
##    <fct>                <dbl>  <dbl> <dbl> <int>
##  1 Alabama              13.9      10  11.5  2667
##  2 Alaska               10.5       5  10.8  1621
##  3 Arizona              12.9       8  11.3  1698
##  4 Arkansas             13.3      10  11.4  2105
##  5 California           11.7       7  11.0  4144
##  6 Colorado             10.7       5  10.8  4688
##  7 Connecticut          10.6       5  10.7  2700
##  8 Delaware             11.8       6  11.2  1790
##  9 District of Columbia  9.80      5  10.4  1717
## 10 Florida              13.0       8  11.3 13286
## #  with 43 more rows

sub_brfss2013 %>%
  select(X_state, menthlth) %>%
  filter((menthlth > 0) & (X_state != 0) & (menthlth <= 30)) %>%
  group_by(X_state) %>%
  summarise(mean = mean(menthlth), median = median(menthlth), sd = sd(menthlth), n = n())

## # A tibble: 53 x 5
##    X_state               mean median    sd     n
##    <fct>                <dbl>  <dbl> <dbl> <int>
##  1 Alabama              13.2      10 11.0   2131
##  2 Alaska                9.19      5  9.51  1426
##  3 Arizona              11.2       5 10.6   1314
##  4 Arkansas             12.5      10 10.9   1616
##  5 California           10.5       5 10.1   4090
##  6 Colorado              9.44      5  9.80  4262
##  7 Connecticut          10.2       5 10.1   2456
##  8 Delaware             11.2       5 10.7   1573
##  9 District of Columbia  9.57      5  9.91  1405
## 10 Florida              12.3       7 11.0   9976
## #  with 43 more rows
…
